^C:\USERS\ELIFC\ONEDRIVE\MASAÜSTÜ\OOP-LAB SINGELTON KULLANıLMıŞ HALI\2122SPRINGOOP17\OOP6\OOP6\DEBUG\ENGINE.OBJ|C:\USERS\ELIFC\ONEDRIVE\MASAÜSTÜ\OOP-LAB SINGELTON KULLANıLMıŞ HALI\2122SPRINGOOP17\OOP6\OOP6\DEBUG\EXTERNAL_TANK.OBJ|C:\USERS\ELIFC\ONEDRIVE\MASAÜSTÜ\OOP-LAB SINGELTON KULLANıLMıŞ HALI\2122SPRINGOOP17\OOP6\OOP6\DEBUG\INPUT.OBJ|C:\USERS\ELIFC\ONEDRIVE\MASAÜSTÜ\OOP-LAB SINGELTON KULLANıLMıŞ HALI\2122SPRINGOOP17\OOP6\OOP6\DEBUG\MAIN.OBJ|C:\USERS\ELIFC\ONEDRIVE\MASAÜSTÜ\OOP-LAB SINGELTON KULLANıLMıŞ HALI\2122SPRINGOOP17\OOP6\OOP6\DEBUG\OBSERVER.OBJ|C:\USERS\ELIFC\ONEDRIVE\MASAÜSTÜ\OOP-LAB SINGELTON KULLANıLMıŞ HALI\2122SPRINGOOP17\OOP6\OOP6\DEBUG\OBSERVERINFORMATION.OBJ|C:\USERS\ELIFC\ONEDRIVE\MASAÜSTÜ\OOP-LAB SINGELTON KULLANıLMıŞ HALI\2122SPRINGOOP17\OOP6\OOP6\DEBUG\TANK.OBJ|C:\USERS\ELIFC\ONEDRIVE\MASAÜSTÜ\OOP-LAB SINGELTON KULLANıLMıŞ HALI\2122SPRINGOOP17\OOP6\OOP6\DEBUG\VALVE.OBJ|C:\USERS\ELIFC\ONEDRIVE\MASAÜSTÜ\OOP-LAB SINGELTON KULLANıLMıŞ HALI\2122SPRINGOOP17\OOP6\OOP6\DEBUG\İNTERNAL_TANK.OBJ
C:\PROGRAM FILES (X86)\WINDOWS KITS\10\LIB\10.0.17763.0\UM\X86\KERNEL32.LIB
C:\PROGRAM FILES (X86)\WINDOWS KITS\10\LIB\10.0.17763.0\UM\X86\USER32.LIB
C:\PROGRAM FILES (X86)\WINDOWS KITS\10\LIB\10.0.17763.0\UM\X86\GDI32.LIB
C:\PROGRAM FILES (X86)\WINDOWS KITS\10\LIB\10.0.17763.0\UM\X86\WINSPOOL.LIB
C:\PROGRAM FILES (X86)\WINDOWS KITS\10\LIB\10.0.17763.0\UM\X86\COMDLG32.LIB
C:\PROGRAM FILES (X86)\WINDOWS KITS\10\LIB\10.0.17763.0\UM\X86\ADVAPI32.LIB
C:\PROGRAM FILES (X86)\WINDOWS KITS\10\LIB\10.0.17763.0\UM\X86\SHELL32.LIB
C:\PROGRAM FILES (X86)\WINDOWS KITS\10\LIB\10.0.17763.0\UM\X86\OLE32.LIB
C:\PROGRAM FILES (X86)\WINDOWS KITS\10\LIB\10.0.17763.0\UM\X86\OLEAUT32.LIB
C:\PROGRAM FILES (X86)\WINDOWS KITS\10\LIB\10.0.17763.0\UM\X86\UUID.LIB
C:\PROGRAM FILES (X86)\WINDOWS KITS\10\LIB\10.0.17763.0\UM\X86\ODBC32.LIB
C:\PROGRAM FILES (X86)\WINDOWS KITS\10\LIB\10.0.17763.0\UM\X86\ODBCCP32.LIB
C:\USERS\ELIFC\ONEDRIVE\MASAüSTü\OOP-LAB SINGELTON KULLANıLMış HALI\2122SPRINGOOP17\OOP6\OOP6\DEBUG\ENGINE.OBJ
C:\USERS\ELIFC\ONEDRIVE\MASAüSTü\OOP-LAB SINGELTON KULLANıLMış HALI\2122SPRINGOOP17\OOP6\OOP6\DEBUG\EXTERNAL_TANK.OBJ
C:\USERS\ELIFC\ONEDRIVE\MASAüSTü\OOP-LAB SINGELTON KULLANıLMış HALI\2122SPRINGOOP17\OOP6\OOP6\DEBUG\INPUT.OBJ
C:\USERS\ELIFC\ONEDRIVE\MASAüSTü\OOP-LAB SINGELTON KULLANıLMış HALI\2122SPRINGOOP17\OOP6\OOP6\DEBUG\MAIN.OBJ
C:\USERS\ELIFC\ONEDRIVE\MASAüSTü\OOP-LAB SINGELTON KULLANıLMış HALI\2122SPRINGOOP17\OOP6\OOP6\DEBUG\OBSERVER.OBJ
C:\USERS\ELIFC\ONEDRIVE\MASAüSTü\OOP-LAB SINGELTON KULLANıLMış HALI\2122SPRINGOOP17\OOP6\OOP6\DEBUG\OBSERVERINFORMATION.OBJ
C:\USERS\ELIFC\ONEDRIVE\MASAüSTü\OOP-LAB SINGELTON KULLANıLMış HALI\2122SPRINGOOP17\OOP6\OOP6\DEBUG\TANK.OBJ
C:\USERS\ELIFC\ONEDRIVE\MASAüSTü\OOP-LAB SINGELTON KULLANıLMış HALI\2122SPRINGOOP17\OOP6\OOP6\DEBUG\VALVE.OBJ
C:\USERS\ELIFC\ONEDRIVE\MASAüSTü\OOP-LAB SINGELTON KULLANıLMış HALI\2122SPRINGOOP17\OOP6\OOP6\DEBUG\İNTERNAL_TANK.OBJ
C:\WINDOWS\SYSTEM32\TZRES.DLL
C:\WINDOWS\GLOBALIZATION\SORTING\SORTDEFAULT.NLS
C:\PROGRAM FILES (X86)\MICROSOFT VISUAL STUDIO\2017\COMMUNITY\VC\TOOLS\MSVC\14.16.27023\LIB\X86\MSVCPRTD.LIB
C:\PROGRAM FILES (X86)\MICROSOFT VISUAL STUDIO\2017\COMMUNITY\VC\TOOLS\MSVC\14.16.27023\LIB\X86\MSVCRTD.LIB
C:\PROGRAM FILES (X86)\MICROSOFT VISUAL STUDIO\2017\COMMUNITY\VC\TOOLS\MSVC\14.16.27023\LIB\X86\OLDNAMES.LIB
C:\PROGRAM FILES (X86)\MICROSOFT VISUAL STUDIO\2017\COMMUNITY\VC\TOOLS\MSVC\14.16.27023\LIB\X86\VCRUNTIMED.LIB
C:\PROGRAM FILES (X86)\WINDOWS KITS\10\LIB\10.0.17763.0\UCRT\X86\UCRTD.LIB
C:\PROGRAM FILES (X86)\MICROSOFT VISUAL STUDIO\2017\COMMUNITY\VC\TOOLS\MSVC\14.16.27023\BIN\HOSTX86\X86\LINK.EXE
C:\PROGRAM FILES (X86)\WINDOWS KITS\10\BIN\10.0.17763.0\X86\RC.EXE
C:\PROGRAM FILES (X86)\MICROSOFT VISUAL STUDIO\2017\COMMUNITY\VC\TOOLS\MSVC\14.16.27023\BIN\HOSTX86\X86\CVTRES.EXE
